\relax 
\providecommand\hyper@newdestlabel[2]{}
\providecommand\HyperFirstAtBeginDocument{\AtBeginDocument}
\HyperFirstAtBeginDocument{\ifx\hyper@anchor\@undefined
\global\let\oldcontentsline\contentsline
\gdef\contentsline#1#2#3#4{\oldcontentsline{#1}{#2}{#3}}
\global\let\oldnewlabel\newlabel
\gdef\newlabel#1#2{\newlabelxx{#1}#2}
\gdef\newlabelxx#1#2#3#4#5#6{\oldnewlabel{#1}{{#2}{#3}}}
\AtEndDocument{\ifx\hyper@anchor\@undefined
\let\contentsline\oldcontentsline
\let\newlabel\oldnewlabel
\fi}
\fi}
\global\let\hyper@last\relax 
\gdef\HyperFirstAtBeginDocument#1{#1}
\providecommand\HyField@AuxAddToFields[1]{}
\providecommand\HyField@AuxAddToCoFields[2]{}
\babel@aux{english}{}
\@writefile{nav}{\headcommand {\slideentry {0}{0}{1}{1/1}{}{0}}}
\@writefile{nav}{\headcommand {\beamer@framepages {1}{1}}}
\@writefile{nav}{\headcommand {\slideentry {0}{0}{2}{2/2}{}{0}}}
\@writefile{nav}{\headcommand {\beamer@framepages {2}{2}}}
\citation{10.3389/neuro.09.031.2009}
\@writefile{toc}{\beamer@sectionintoc {1}{The Brain}{3}{0}{1}}
\@writefile{nav}{\headcommand {\beamer@sectionpages {1}{2}}}
\@writefile{nav}{\headcommand {\beamer@subsectionpages {1}{2}}}
\@writefile{nav}{\headcommand {\sectionentry {1}{The Brain}{3}{The Brain}{0}}}
\@writefile{toc}{\beamer@subsectionintoc {1}{1}{Quick Overview}{3}{0}{1}}
\@writefile{nav}{\headcommand {\beamer@subsectionpages {3}{2}}}
\@writefile{nav}{\headcommand {\beamer@subsectionentry {0}{1}{1}{3}{Quick Overview}}}
\citation{10.3389/neuro.09.031.2009}
\citation{10.3389/neuro.09.031.2009}
\citation{10.3389/neuro.09.031.2009}
\citation{10.3389/neuro.09.031.2009}
\@writefile{nav}{\headcommand {\slideentry {1}{1}{1}{3/7}{Quick Overview}{0}}}
\@writefile{nav}{\headcommand {\beamer@framepages {3}{7}}}
\citation{Drachman2004}
\@writefile{toc}{\beamer@subsectionintoc {1}{2}{Neurons}{8}{0}{1}}
\@writefile{nav}{\headcommand {\beamer@subsectionpages {3}{7}}}
\@writefile{nav}{\headcommand {\beamer@subsectionentry {0}{1}{2}{8}{Neurons}}}
\citation{Drachman2004}
\@writefile{nav}{\headcommand {\slideentry {1}{2}{1}{8/9}{Neurons}{0}}}
\@writefile{nav}{\headcommand {\beamer@framepages {8}{9}}}
\@writefile{nav}{\headcommand {\slideentry {1}{2}{2}{10/11}{Neurons}{0}}}
\@writefile{nav}{\headcommand {\beamer@framepages {10}{11}}}
\@writefile{toc}{\beamer@sectionintoc {2}{The Classical Analysis}{12}{0}{2}}
\@writefile{nav}{\headcommand {\beamer@sectionpages {3}{11}}}
\@writefile{nav}{\headcommand {\beamer@subsectionpages {8}{11}}}
\@writefile{nav}{\headcommand {\sectionentry {2}{The Classical Analysis}{12}{The Classical Analysis}{0}}}
\@writefile{toc}{\beamer@subsectionintoc {2}{1}{Linear-Nonlinear Models}{12}{0}{2}}
\@writefile{nav}{\headcommand {\beamer@subsectionpages {12}{11}}}
\@writefile{nav}{\headcommand {\beamer@subsectionentry {0}{2}{1}{12}{Linear-Nonlinear Models}}}
\@writefile{nav}{\headcommand {\slideentry {2}{1}{1}{12/12}{Linear-Nonlinear Models}{0}}}
\@writefile{nav}{\headcommand {\beamer@framepages {12}{12}}}
\@writefile{toc}{\beamer@subsectionintoc {2}{2}{Generalized Linear Models}{13}{0}{2}}
\@writefile{nav}{\headcommand {\beamer@subsectionpages {12}{12}}}
\@writefile{nav}{\headcommand {\beamer@subsectionentry {0}{2}{2}{13}{Generalized Linear Models}}}
\@writefile{nav}{\headcommand {\slideentry {2}{2}{1}{13/13}{Generalized Linear Models}{0}}}
\@writefile{nav}{\headcommand {\beamer@framepages {13}{13}}}
\@writefile{nav}{\headcommand {\slideentry {2}{2}{2}{14/14}{Generalized Linear Models}{0}}}
\@writefile{nav}{\headcommand {\beamer@framepages {14}{14}}}
\@writefile{nav}{\headcommand {\slideentry {2}{2}{3}{15/15}{Generalized Linear Models}{0}}}
\@writefile{nav}{\headcommand {\beamer@framepages {15}{15}}}
\@writefile{nav}{\headcommand {\slideentry {2}{2}{4}{16/16}{Generalized Linear Models}{0}}}
\@writefile{nav}{\headcommand {\beamer@framepages {16}{16}}}
\@writefile{nav}{\headcommand {\slideentry {2}{2}{5}{17/18}{Generalized Linear Models}{0}}}
\@writefile{nav}{\headcommand {\beamer@framepages {17}{18}}}
\@writefile{toc}{\beamer@sectionintoc {3}{Machine Learning}{19}{0}{3}}
\@writefile{nav}{\headcommand {\beamer@sectionpages {12}{18}}}
\@writefile{nav}{\headcommand {\beamer@subsectionpages {13}{18}}}
\@writefile{nav}{\headcommand {\sectionentry {3}{Machine Learning}{19}{Machine Learning}{0}}}
\@writefile{toc}{\beamer@subsectionintoc {3}{1}{Unsupervised Machine Learning}{19}{0}{3}}
\@writefile{nav}{\headcommand {\beamer@subsectionpages {19}{18}}}
\@writefile{nav}{\headcommand {\beamer@subsectionentry {0}{3}{1}{19}{Unsupervised Machine Learning}}}
\@writefile{nav}{\headcommand {\slideentry {3}{1}{1}{19/19}{Unsupervised Machine Learning}{0}}}
\@writefile{nav}{\headcommand {\beamer@framepages {19}{19}}}
\@writefile{nav}{\headcommand {\slideentry {3}{1}{2}{20/22}{Unsupervised Machine Learning}{0}}}
\@writefile{nav}{\headcommand {\beamer@framepages {20}{22}}}
\@writefile{toc}{\beamer@subsectionintoc {3}{2}{Supervised Machine Learning}{23}{0}{3}}
\@writefile{nav}{\headcommand {\beamer@subsectionpages {19}{22}}}
\@writefile{nav}{\headcommand {\beamer@subsectionentry {0}{3}{2}{23}{Supervised Machine Learning}}}
\@writefile{nav}{\headcommand {\slideentry {3}{2}{1}{23/23}{Supervised Machine Learning}{0}}}
\@writefile{nav}{\headcommand {\beamer@framepages {23}{23}}}
\@writefile{toc}{\beamer@sectionintoc {4}{Predicting Spikes}{24}{0}{4}}
\@writefile{nav}{\headcommand {\beamer@sectionpages {19}{23}}}
\@writefile{nav}{\headcommand {\beamer@subsectionpages {23}{23}}}
\@writefile{nav}{\headcommand {\sectionentry {4}{Predicting Spikes}{24}{Predicting Spikes}{0}}}
\@writefile{toc}{\beamer@subsectionintoc {4}{1}{Machine Learning Vs. Classical}{24}{0}{4}}
\@writefile{nav}{\headcommand {\beamer@subsectionpages {24}{23}}}
\@writefile{nav}{\headcommand {\beamer@subsectionentry {0}{4}{1}{24}{Machine Learning Vs. Classical}}}
\@writefile{nav}{\headcommand {\slideentry {4}{1}{1}{24/27}{Machine Learning Vs. Classical}{0}}}
\@writefile{nav}{\headcommand {\beamer@framepages {24}{27}}}
\@writefile{nav}{\headcommand {\slideentry {4}{1}{2}{28/28}{Machine Learning Vs. Classical}{0}}}
\@writefile{nav}{\headcommand {\beamer@framepages {28}{28}}}
\@writefile{toc}{\beamer@subsectionintoc {4}{2}{Hyperparameters}{29}{0}{4}}
\@writefile{nav}{\headcommand {\beamer@subsectionpages {24}{28}}}
\@writefile{nav}{\headcommand {\beamer@subsectionentry {0}{4}{2}{29}{Hyperparameters}}}
\@writefile{nav}{\headcommand {\slideentry {4}{2}{1}{29/29}{Hyperparameters}{0}}}
\@writefile{nav}{\headcommand {\beamer@framepages {29}{29}}}
\@writefile{nav}{\headcommand {\slideentry {4}{2}{2}{30/30}{Hyperparameters}{0}}}
\@writefile{nav}{\headcommand {\beamer@framepages {30}{30}}}
\citation{Benjamin111450}
\citation{Benjamin111450}
\@writefile{toc}{\beamer@sectionintoc {5}{Conclusion}{31}{0}{5}}
\@writefile{nav}{\headcommand {\beamer@sectionpages {24}{30}}}
\@writefile{nav}{\headcommand {\beamer@subsectionpages {29}{30}}}
\@writefile{nav}{\headcommand {\sectionentry {5}{Conclusion}{31}{Conclusion}{0}}}
\citation{Benjamin111450}
\citation{Benjamin111450}
\@writefile{nav}{\headcommand {\slideentry {5}{0}{1}{31/32}{}{0}}}
\@writefile{nav}{\headcommand {\beamer@framepages {31}{32}}}
\@writefile{nav}{\headcommand {\slideentry {5}{0}{2}{33/36}{}{0}}}
\@writefile{nav}{\headcommand {\beamer@framepages {33}{36}}}
\@writefile{nav}{\headcommand {\slideentry {5}{0}{3}{37/39}{}{0}}}
\@writefile{nav}{\headcommand {\beamer@framepages {37}{39}}}
\@writefile{nav}{\headcommand {\slideentry {5}{0}{4}{40/40}{}{0}}}
\@writefile{nav}{\headcommand {\beamer@framepages {40}{40}}}
\@writefile{nav}{\headcommand {\slideentry {5}{0}{5}{41/41}{}{0}}}
\@writefile{nav}{\headcommand {\beamer@framepages {41}{41}}}
\bibstyle{ieeetr}
\bibdata{neuronNum}
\@writefile{nav}{\headcommand {\beamer@partpages {1}{41}}}
\@writefile{nav}{\headcommand {\beamer@subsectionpages {31}{41}}}
\@writefile{nav}{\headcommand {\beamer@sectionpages {31}{41}}}
\@writefile{nav}{\headcommand {\beamer@documentpages {41}}}
\@writefile{nav}{\headcommand {\gdef \inserttotalframenumber {23}}}
