\BOOKMARK [2][]{Outline0.1}{The Brain}{}% 1
\BOOKMARK [3][]{Outline0.1.1.3}{Quick Overview}{Outline0.1}% 2
\BOOKMARK [3][]{Outline0.1.2.8}{Neurons}{Outline0.1}% 3
\BOOKMARK [2][]{Outline0.2}{The Classical Analysis}{}% 4
\BOOKMARK [3][]{Outline0.2.1.12}{Linear-Nonlinear Models}{Outline0.2}% 5
\BOOKMARK [3][]{Outline0.2.2.13}{Generalized Linear Models}{Outline0.2}% 6
\BOOKMARK [2][]{Outline0.3}{Machine Learning}{}% 7
\BOOKMARK [3][]{Outline0.3.1.19}{Unsupervised Machine Learning}{Outline0.3}% 8
\BOOKMARK [3][]{Outline0.3.2.23}{Supervised Machine Learning}{Outline0.3}% 9
\BOOKMARK [2][]{Outline0.4}{Predicting Spikes}{}% 10
\BOOKMARK [3][]{Outline0.4.1.24}{Machine Learning Vs. Classical}{Outline0.4}% 11
\BOOKMARK [3][]{Outline0.4.2.29}{Hyperparameters}{Outline0.4}% 12
\BOOKMARK [2][]{Outline0.5}{Conclusion}{}% 13
