%!PS-Adobe-3.0 EPSF-3.0
%%Creator: MATLAB, The MathWorks, Inc. Version 8.3.0.532 (R2014a). Operating System: Darwin 13.3.0 Darwin Kernel Version 13.3.0: Tue Jun  3 21:27:35 PDT 2014; root:xnu-2422.110.17~1/RELEASE_X86_64 x86_64.
%%Title: /Users/nphirning/Dropbox/BEDS2/Nick/v4 IID Peaks-NM vs. NL.eps
%%CreationDate: 08/04/2014  12:12:42
%%DocumentNeededFonts: Helvetica
%%DocumentProcessColors: Cyan Magenta Yellow Black
%%LanguageLevel: 2
%%Pages: 1
%%BoundingBox:    83   241   527   551
%%EndComments

%%BeginProlog
% MathWorks dictionary
/MathWorks 160 dict begin
% definition operators
/bdef {bind def} bind def
/ldef {load def} bind def
/xdef {exch def} bdef
/xstore {exch store} bdef
% operator abbreviations
/c  /clip ldef
/cc /concat ldef
/cp /closepath ldef
/gr /grestore ldef
/gs /gsave ldef
/mt /moveto ldef
/np /newpath ldef
/cm /currentmatrix ldef
/sm /setmatrix ldef
/rm /rmoveto ldef
/rl /rlineto ldef
/s {show newpath} bdef
/sc {setcmykcolor} bdef
/sr /setrgbcolor ldef
/sg /setgray ldef
/w /setlinewidth ldef
/j /setlinejoin ldef
/cap /setlinecap ldef
/rc {rectclip} bdef
/rf {rectfill} bdef
% page state control
/pgsv () def
/bpage {/pgsv save def} bdef
/epage {pgsv restore} bdef
/bplot /gsave ldef
/eplot {stroke grestore} bdef
% orientation switch
/portraitMode 0 def /landscapeMode 1 def /rotateMode 2 def
% coordinate system mappings
/dpi2point 0 def
% font control
/FontSize 0 def
/FMS {/FontSize xstore findfont [FontSize 0 0 FontSize neg 0 0]
  makefont setfont} bdef
/reencode {exch dup where {pop load} {pop StandardEncoding} ifelse
  exch dup 3 1 roll findfont dup length dict begin
  { 1 index /FID ne {def}{pop pop} ifelse } forall
  /Encoding exch def currentdict end definefont pop} bdef
/isroman {findfont /CharStrings get /Agrave known} bdef
/FMSR {3 1 roll 1 index dup isroman {reencode} {pop pop} ifelse
  exch FMS} bdef
/csm {1 dpi2point div -1 dpi2point div scale neg translate
 dup landscapeMode eq {pop -90 rotate}
  {rotateMode eq {90 rotate} if} ifelse} bdef
% line types: solid, dotted, dashed, dotdash
/SO { [] 0 setdash } bdef
/DO { [.5 dpi2point mul 4 dpi2point mul] 0 setdash } bdef
/DA { [6 dpi2point mul] 0 setdash } bdef
/DD { [.5 dpi2point mul 4 dpi2point mul 6 dpi2point mul 4
  dpi2point mul] 0 setdash } bdef
% macros for lines and objects
/L {lineto stroke} bdef
/MP {3 1 roll moveto 1 sub {rlineto} repeat} bdef
/AP {{rlineto} repeat} bdef
/PDlw -1 def
/W {/PDlw currentlinewidth def setlinewidth} def
/PP {closepath eofill} bdef
/DP {closepath stroke} bdef
/MR {4 -2 roll moveto dup  0 exch rlineto exch 0 rlineto
  neg 0 exch rlineto closepath} bdef
/FR {MR stroke} bdef
/PR {MR fill} bdef
/L1i {{currentfile picstr readhexstring pop} image} bdef
/tMatrix matrix def
/MakeOval {newpath tMatrix currentmatrix pop translate scale
0 0 1 0 360 arc tMatrix setmatrix} bdef
/FO {MakeOval stroke} bdef
/PO {MakeOval fill} bdef
/PD {currentlinewidth 2 div 0 360 arc fill
   PDlw -1 eq not {PDlw w /PDlw -1 def} if} def
/FA {newpath tMatrix currentmatrix pop translate scale
  0 0 1 5 -2 roll arc tMatrix setmatrix stroke} bdef
/PA {newpath tMatrix currentmatrix pop	translate 0 0 moveto scale
  0 0 1 5 -2 roll arc closepath tMatrix setmatrix fill} bdef
/FAn {newpath tMatrix currentmatrix pop translate scale
  0 0 1 5 -2 roll arcn tMatrix setmatrix stroke} bdef
/PAn {newpath tMatrix currentmatrix pop translate 0 0 moveto scale
  0 0 1 5 -2 roll arcn closepath tMatrix setmatrix fill} bdef
/vradius 0 def /hradius 0 def /lry 0 def
/lrx 0 def /uly 0 def /ulx 0 def /rad 0 def
/MRR {/vradius xdef /hradius xdef /lry xdef /lrx xdef /uly xdef
  /ulx xdef newpath tMatrix currentmatrix pop ulx hradius add uly
  vradius add translate hradius vradius scale 0 0 1 180 270 arc 
  tMatrix setmatrix lrx hradius sub uly vradius add translate
  hradius vradius scale 0 0 1 270 360 arc tMatrix setmatrix
  lrx hradius sub lry vradius sub translate hradius vradius scale
  0 0 1 0 90 arc tMatrix setmatrix ulx hradius add lry vradius sub
  translate hradius vradius scale 0 0 1 90 180 arc tMatrix setmatrix
  closepath} bdef
/FRR {MRR stroke } bdef
/PRR {MRR fill } bdef
/MlrRR {/lry xdef /lrx xdef /uly xdef /ulx xdef /rad lry uly sub 2 div def
  newpath tMatrix currentmatrix pop ulx rad add uly rad add translate
  rad rad scale 0 0 1 90 270 arc tMatrix setmatrix lrx rad sub lry rad
  sub translate rad rad scale 0 0 1 270 90 arc tMatrix setmatrix
  closepath} bdef
/FlrRR {MlrRR stroke } bdef
/PlrRR {MlrRR fill } bdef
/MtbRR {/lry xdef /lrx xdef /uly xdef /ulx xdef /rad lrx ulx sub 2 div def
  newpath tMatrix currentmatrix pop ulx rad add uly rad add translate
  rad rad scale 0 0 1 180 360 arc tMatrix setmatrix lrx rad sub lry rad
  sub translate rad rad scale 0 0 1 0 180 arc tMatrix setmatrix
  closepath} bdef
/FtbRR {MtbRR stroke } bdef
/PtbRR {MtbRR fill } bdef
/stri 6 array def /dtri 6 array def
/smat 6 array def /dmat 6 array def
/tmat1 6 array def /tmat2 6 array def /dif 3 array def
/asub {/ind2 exch def /ind1 exch def dup dup
  ind1 get exch ind2 get sub exch } bdef
/tri_to_matrix {
  2 0 asub 3 1 asub 4 0 asub 5 1 asub
  dup 0 get exch 1 get 7 -1 roll astore } bdef
/compute_transform {
  dmat dtri tri_to_matrix tmat1 invertmatrix 
  smat stri tri_to_matrix tmat2 concatmatrix } bdef
/ds {stri astore pop} bdef
/dt {dtri astore pop} bdef
/db {2 copy /cols xdef /rows xdef mul dup 3 mul string
  currentfile 
  3 index 0 eq {/ASCIIHexDecode filter}
  {/ASCII85Decode filter 3 index 2 eq {/RunLengthDecode filter} if }
  ifelse exch readstring pop
  dup 0 3 index getinterval /rbmap xdef
  dup 2 index dup getinterval /gbmap xdef
  1 index dup 2 mul exch getinterval /bbmap xdef pop pop}bdef
/it {gs np dtri aload pop moveto lineto lineto cp c
  cols rows 8 compute_transform 
  rbmap gbmap bbmap true 3 colorimage gr}bdef
/il {newpath moveto lineto stroke}bdef
currentdict end def
%%EndProlog

%%BeginSetup
MathWorks begin

0 cap

end
%%EndSetup

%%Page: 1 1
%%BeginPageSetup
%%PageBoundingBox:    83   241   527   551
MathWorks begin
bpage
%%EndPageSetup

%%BeginObject: obj1
bplot

/dpi2point 12 def
portraitMode 0996 6612 csm

    0     0  5329  3715 rc
85 dict begin %Colortable dictionary
/c0 { 0.000000 0.000000 0.000000 sr} bdef
/c1 { 1.000000 1.000000 1.000000 sr} bdef
/c2 { 0.900000 0.000000 0.000000 sr} bdef
/c3 { 0.000000 0.820000 0.000000 sr} bdef
/c4 { 0.000000 0.000000 0.800000 sr} bdef
/c5 { 0.910000 0.820000 0.320000 sr} bdef
/c6 { 1.000000 0.260000 0.820000 sr} bdef
/c7 { 0.000000 0.820000 0.820000 sr} bdef
c0
1 j
1 sg
   0    0 5330 3716 rf
6 w
0 3017 4130 0 0 -3017 693 3306 4 MP
PP
-4130 0 0 3017 4130 0 0 -3017 693 3306 5 MP stroke
4 w
DO
SO
6 w
0 sg
 693 3306 mt 4823 3306 L
 693  289 mt 4823  289 L
 693 3306 mt  693  289 L
4823 3306 mt 4823  289 L
 693 3306 mt 4823 3306 L
 693 3306 mt  693  289 L
 693 3306 mt  693 3264 L
 693  289 mt  693  330 L
%%IncludeResource: font Helvetica
/Helvetica /ISOLatin1Encoding 120 FMSR

 660 3451 mt 
(0) s
 899 3306 mt  899 3285 L
 899  289 mt  899  309 L
1106 3306 mt 1106 3285 L
1106  289 mt 1106  309 L
1106 3306 mt 1106 3285 L
1106  289 mt 1106  309 L
1106 3306 mt 1106 3285 L
1106  289 mt 1106  309 L
1106 3306 mt 1106 3285 L
1106  289 mt 1106  309 L
1106 3306 mt 1106 3285 L
1106  289 mt 1106  309 L
1106 3306 mt 1106 3285 L
1106  289 mt 1106  309 L
1106 3306 mt 1106 3285 L
1106  289 mt 1106  309 L
1106 3306 mt 1106 3285 L
1106  289 mt 1106  309 L
1106 3306 mt 1106 3264 L
1106  289 mt 1106  330 L
1073 3451 mt 
(1) s
1312 3306 mt 1312 3285 L
1312  289 mt 1312  309 L
1519 3306 mt 1519 3285 L
1519  289 mt 1519  309 L
1519 3306 mt 1519 3285 L
1519  289 mt 1519  309 L
1519 3306 mt 1519 3285 L
1519  289 mt 1519  309 L
1519 3306 mt 1519 3285 L
1519  289 mt 1519  309 L
1519 3306 mt 1519 3285 L
1519  289 mt 1519  309 L
1519 3306 mt 1519 3285 L
1519  289 mt 1519  309 L
1519 3306 mt 1519 3285 L
1519  289 mt 1519  309 L
1519 3306 mt 1519 3285 L
1519  289 mt 1519  309 L
1519 3306 mt 1519 3264 L
1519  289 mt 1519  330 L
1486 3451 mt 
(2) s
1725 3306 mt 1725 3285 L
1725  289 mt 1725  309 L
1932 3306 mt 1932 3285 L
1932  289 mt 1932  309 L
1932 3306 mt 1932 3285 L
1932  289 mt 1932  309 L
1932 3306 mt 1932 3285 L
1932  289 mt 1932  309 L
1932 3306 mt 1932 3285 L
1932  289 mt 1932  309 L
1932 3306 mt 1932 3285 L
1932  289 mt 1932  309 L
1932 3306 mt 1932 3285 L
1932  289 mt 1932  309 L
1932 3306 mt 1932 3285 L
1932  289 mt 1932  309 L
1932 3306 mt 1932 3285 L
1932  289 mt 1932  309 L
1932 3306 mt 1932 3264 L
1932  289 mt 1932  330 L
1899 3451 mt 
(3) s
2138 3306 mt 2138 3285 L
2138  289 mt 2138  309 L
2345 3306 mt 2345 3285 L
2345  289 mt 2345  309 L
2345 3306 mt 2345 3285 L
2345  289 mt 2345  309 L
2345 3306 mt 2345 3285 L
2345  289 mt 2345  309 L
2345 3306 mt 2345 3285 L
2345  289 mt 2345  309 L
2345 3306 mt 2345 3285 L
2345  289 mt 2345  309 L
2345 3306 mt 2345 3285 L
2345  289 mt 2345  309 L
2345 3306 mt 2345 3285 L
2345  289 mt 2345  309 L
2345 3306 mt 2345 3285 L
2345  289 mt 2345  309 L
2345 3306 mt 2345 3264 L
2345  289 mt 2345  330 L
2312 3451 mt 
(4) s
2551 3306 mt 2551 3285 L
2551  289 mt 2551  309 L
2758 3306 mt 2758 3285 L
2758  289 mt 2758  309 L
2758 3306 mt 2758 3285 L
2758  289 mt 2758  309 L
2758 3306 mt 2758 3285 L
2758  289 mt 2758  309 L
2758 3306 mt 2758 3285 L
2758  289 mt 2758  309 L
2758 3306 mt 2758 3285 L
2758  289 mt 2758  309 L
2758 3306 mt 2758 3285 L
2758  289 mt 2758  309 L
2758 3306 mt 2758 3285 L
2758  289 mt 2758  309 L
2758 3306 mt 2758 3285 L
2758  289 mt 2758  309 L
2758 3306 mt 2758 3264 L
2758  289 mt 2758  330 L
2725 3451 mt 
(5) s
2964 3306 mt 2964 3285 L
2964  289 mt 2964  309 L
3171 3306 mt 3171 3285 L
3171  289 mt 3171  309 L
3171 3306 mt 3171 3285 L
3171  289 mt 3171  309 L
3171 3306 mt 3171 3285 L
3171  289 mt 3171  309 L
3171 3306 mt 3171 3285 L
3171  289 mt 3171  309 L
3171 3306 mt 3171 3285 L
3171  289 mt 3171  309 L
3171 3306 mt 3171 3285 L
3171  289 mt 3171  309 L
3171 3306 mt 3171 3285 L
3171  289 mt 3171  309 L
3171 3306 mt 3171 3285 L
3171  289 mt 3171  309 L
3171 3306 mt 3171 3264 L
3171  289 mt 3171  330 L
3138 3451 mt 
(6) s
3377 3306 mt 3377 3285 L
3377  289 mt 3377  309 L
3584 3306 mt 3584 3285 L
3584  289 mt 3584  309 L
3584 3306 mt 3584 3285 L
3584  289 mt 3584  309 L
3584 3306 mt 3584 3285 L
3584  289 mt 3584  309 L
3584 3306 mt 3584 3285 L
3584  289 mt 3584  309 L
3584 3306 mt 3584 3285 L
3584  289 mt 3584  309 L
3584 3306 mt 3584 3285 L
3584  289 mt 3584  309 L
3584 3306 mt 3584 3285 L
3584  289 mt 3584  309 L
3584 3306 mt 3584 3285 L
3584  289 mt 3584  309 L
3584 3306 mt 3584 3264 L
3584  289 mt 3584  330 L
3551 3451 mt 
(7) s
3790 3306 mt 3790 3285 L
3790  289 mt 3790  309 L
3997 3306 mt 3997 3285 L
3997  289 mt 3997  309 L
3997 3306 mt 3997 3285 L
3997  289 mt 3997  309 L
3997 3306 mt 3997 3285 L
3997  289 mt 3997  309 L
3997 3306 mt 3997 3285 L
3997  289 mt 3997  309 L
3997 3306 mt 3997 3285 L
3997  289 mt 3997  309 L
3997 3306 mt 3997 3285 L
3997  289 mt 3997  309 L
3997 3306 mt 3997 3285 L
3997  289 mt 3997  309 L
3997 3306 mt 3997 3285 L
3997  289 mt 3997  309 L
3997 3306 mt 3997 3264 L
3997  289 mt 3997  330 L
3964 3451 mt 
(8) s
4203 3306 mt 4203 3285 L
4203  289 mt 4203  309 L
4410 3306 mt 4410 3285 L
4410  289 mt 4410  309 L
4410 3306 mt 4410 3285 L
4410  289 mt 4410  309 L
4410 3306 mt 4410 3285 L
4410  289 mt 4410  309 L
4410 3306 mt 4410 3285 L
4410  289 mt 4410  309 L
4410 3306 mt 4410 3285 L
4410  289 mt 4410  309 L
4410 3306 mt 4410 3285 L
4410  289 mt 4410  309 L
4410 3306 mt 4410 3285 L
4410  289 mt 4410  309 L
4410 3306 mt 4410 3285 L
4410  289 mt 4410  309 L
4410 3306 mt 4410 3264 L
4410  289 mt 4410  330 L
4377 3451 mt 
(9) s
4616 3306 mt 4616 3285 L
4616  289 mt 4616  309 L
4823 3306 mt 4823 3285 L
4823  289 mt 4823  309 L
4823 3306 mt 4823 3285 L
4823  289 mt 4823  309 L
4823 3306 mt 4823 3285 L
4823  289 mt 4823  309 L
4823 3306 mt 4823 3285 L
4823  289 mt 4823  309 L
4823 3306 mt 4823 3285 L
4823  289 mt 4823  309 L
4823 3306 mt 4823 3285 L
4823  289 mt 4823  309 L
4823 3306 mt 4823 3285 L
4823  289 mt 4823  309 L
4823 3306 mt 4823 3285 L
4823  289 mt 4823  309 L
4823 3306 mt 4823 3264 L
4823  289 mt 4823  330 L
4757 3451 mt 
(10) s
 693 3306 mt  734 3306 L
4823 3306 mt 4781 3306 L
 592 3350 mt 
(0) s
 693 2970 mt  734 2970 L
4823 2970 mt 4781 2970 L
 492 3014 mt 
(0.1) s
 693 2635 mt  734 2635 L
4823 2635 mt 4781 2635 L
 492 2679 mt 
(0.2) s
 693 2300 mt  734 2300 L
4823 2300 mt 4781 2300 L
 492 2344 mt 
(0.3) s
 693 1965 mt  734 1965 L
4823 1965 mt 4781 1965 L
 492 2009 mt 
(0.4) s
 693 1629 mt  734 1629 L
4823 1629 mt 4781 1629 L
 492 1673 mt 
(0.5) s
 693 1294 mt  734 1294 L
4823 1294 mt 4781 1294 L
 492 1338 mt 
(0.6) s
 693  959 mt  734  959 L
4823  959 mt 4781  959 L
 492 1003 mt 
(0.7) s
 693  624 mt  734  624 L
4823  624 mt 4781  624 L
 492  668 mt 
(0.8) s
 693  289 mt  734  289 L
4823  289 mt 4781  289 L
 492  333 mt 
(0.9) s
 693 3306 mt 4823 3306 L
 693  289 mt 4823  289 L
 693 3306 mt  693  289 L
4823 3306 mt 4823  289 L
gs 693 289 4131 3018 rc
/c8 { 0.000000 0.000000 1.000000 sr} bdef
c8
9 0 8 0 8 0 9 0 8 0 8 0 8 0 9 0 
8 0 8 0 8 0 9 0 8 0 8 0 9 0 8 0 
8 0 8 0 9 0 8 0 8 0 8 0 9 0 8 0 
8 0 8 0 9 0 8 0 8 0 9 0 8 0 8 0 
8 0 9 0 8 0 8 0 8 0 9 0 8 0 8 0 
8 0 9 0 8 0 8 0 9 0 8 0 8 0 8 0 
9 0 8 0 8 0 8 0 9 0 8 0 8 0 9 0 
8 0 8 0 8 0 9 0 8 0 8 0 8 0 9 0 
8 0 8 0 8 0 9 0 8 0 8 0 9 0 8 0 
8 0 8 0 9 0 8 0 8 0 8 0 9 0 8 0 
8 0 8 0 9 0 8 0 8 0 9 0 8 0 8 0 
8 0 9 0 8 0 8 1 8 0 9 0 8 0 8 0 
9 0 8 0 8 0 8 0 9 0 8 0 8 0 8 0 
9 0 8 0 8 0 8 0 9 0 8 0 8 0 9 0 
8 0 8 0 8 0 9 0 8 0 8 0 8 0 9 0 
8 0 8 0 8 0 9 0 8 0 8 0 9 0 8 0 
8 0 8 0 9 0 8 0 8 0 8 0 9 0 8 0 
8 0 9 1 8 0 8 0 8 1 9 1 8 1 8 1 
8 2 9 2 8 2 8 2 8 3 9 3 8 3 8 4 
9 3 8 4 8 4 8 3 9 4 8 3 8 2 8 2 
9 1 8 1 8 0 8 -1 9 -2 8 -2 8 -2 9 -3 
8 -4 8 -3 8 -4 9 -4 8 -3 8 -4 8 -3 9 -3 
8 -2 8 -3 9 -2 8 -1 8 -2 8 -1 9 0 8 -1 
8 0 8 1 9 0 8 1 8 1 8 1 9 2 8 2 
8 2 9 3 8 3 8 4 8 3 9 4 8 3 8 4 
8 4 9 3 8 3 8 2 8 2 9 1 8 1 8 0 
9 -1 8 -1 8 -2 8 -3 9 -2 8 -3 8 -3 8 -3 
9 -3 8 -3 8 -2 9 -2 8 -1 8 0 8 0 9 1 
8 1 8 2 8 2 9 3 8 3 8 3 8 3 9 3 
8 2 8 3 9 1 8 1 8 1 8 0 9 -1 8 -2 
8 -2 8 -3 9 -3 8 -3 8 -4 8 -3 9 -4 8 -4 
8 -3 9 -3 8 -3 8 -3 8 -2 9 -2 8 -2 8 -1 
8 -1 9 -1 8 -1 8 -1 9 0 8 -1 8 0 8 0 
9 0 8 0 8 0 8 0 9 0 8 0 8 0 8 0 
9 0 8 0 8 0 9 0 8 0 8 0 8 0 9 0 
8 0 8 0 8 1 9 0 8 1 8 1 8 1 9 1 
8 1 8 2 9 3 8 3 8 3 8 4 9 5 8 5 
8 7 8 7 9 7 2350 3253 300 MP stroke
8 9 8 9 9 11 8 11 8 11 8 12 9 13 8 13 
8 13 8 13 9 12 8 13 8 11 8 11 9 10 8 8 
8 7 9 6 8 4 8 3 8 1 9 0 8 -2 8 -3 
8 -4 9 -5 8 -6 8 -6 8 -7 9 -6 8 -7 8 -7 
9 -6 8 -5 8 -5 8 -3 9 -3 8 -1 8 0 8 2 
9 3 8 4 8 6 9 7 8 8 8 9 8 10 9 10 
8 11 8 12 8 11 9 11 8 11 8 11 8 11 9 11 
8 10 8 10 9 10 8 10 8 9 8 9 9 9 8 9 
8 9 8 8 9 7 8 6 8 6 8 4 9 4 8 2 
8 2 9 0 8 -1 8 -1 8 -2 9 -3 8 -3 8 -2 
8 -3 9 -2 8 -2 8 -1 9 0 8 0 8 1 8 1 
9 3 8 2 8 4 8 3 9 4 8 3 8 4 8 3 
9 3 8 2 8 2 9 0 8 0 8 -2 8 -2 9 -4 
8 -4 8 -5 8 -5 9 -6 8 -4 8 -4 8 -1 9 1 
8 5 8 9 9 14 8 20 8 27 8 34 9 43 8 52 
8 60 8 70 9 79 8 88 8 96 9 104 8 109 8 115 
8 118 9 120 8 119 8 118 8 115 9 110 8 104 8 98 
8 90 9 82 8 75 8 67 9 59 8 54 8 47 8 41 
9 36 8 31 8 27 8 21 9 17 8 11 8 5 8 -2 
9 -10 8 -17 8 -27 9 -36 8 -46 8 -57 8 -67 9 -76 
8 -87 8 -96 8 -104 9 -112 8 -118 8 -123 9 -126 8 -128 
8 -129 8 -128 9 -124 8 -121 8 -115 8 -109 9 -101 8 -92 
8 -83 8 -73 9 -64 8 -55 8 -45 9 -38 8 -30 8 -23 
8 -18 9 -14 8 -11 8 -8 8 -7 9 -8 8 -7 8 -9 
8 -10 9 -11 8 -13 8 -15 9 -15 8 -17 8 -18 8 -17 
4 -9 693 3156 202 MP stroke
/c9 { 0.000000 0.500000 0.000000 sr} bdef
c9
9 0 8 0 8 0 9 0 8 0 8 0 8 0 9 0 
8 0 8 0 8 0 9 0 8 0 8 0 9 0 8 0 
8 0 8 0 9 0 8 0 8 0 8 0 9 0 8 0 
8 0 8 0 9 1 8 0 8 0 9 0 8 0 8 0 
8 0 9 0 8 1 8 0 8 0 9 0 8 0 8 0 
8 1 9 0 8 0 8 0 9 1 8 0 8 0 8 1 
9 0 8 0 8 1 8 0 9 1 8 0 8 1 9 0 
8 1 8 0 8 1 9 1 8 1 8 0 8 1 9 1 
8 1 8 1 8 1 9 1 8 1 8 1 9 1 8 1 
8 1 8 2 9 1 8 2 8 1 8 2 9 1 8 2 
8 2 8 1 9 2 8 2 8 2 9 2 8 2 8 3 
8 2 9 2 8 3 8 2 8 3 9 3 8 3 8 2 
9 3 8 3 8 3 8 4 9 3 8 3 8 4 8 3 
9 4 8 4 8 3 8 4 9 4 8 4 8 4 9 4 
8 5 8 4 8 4 9 5 8 4 8 5 8 5 9 4 
8 5 8 5 8 5 9 5 8 5 8 6 9 5 8 5 
8 5 8 6 9 5 8 6 8 5 8 6 9 6 8 5 
8 6 9 6 8 6 8 6 8 6 9 6 8 6 8 6 
8 6 9 6 8 6 8 6 8 6 9 6 8 7 8 6 
9 6 8 6 8 7 8 6 9 6 8 7 8 6 8 6 
9 7 8 6 8 7 8 6 9 7 8 6 8 6 9 7 
8 6 8 7 8 6 9 7 8 6 8 7 8 6 9 7 
8 6 8 7 9 6 8 7 8 6 8 7 9 6 8 6 
8 7 8 6 9 6 8 7 8 6 8 6 9 6 8 7 
8 6 9 6 8 6 8 6 8 6 9 6 8 6 8 6 
8 5 9 6 8 6 8 5 8 6 9 5 8 6 8 5 
9 5 8 5 8 5 8 5 9 5 8 4 8 5 8 5 
9 4 8 4 8 4 9 4 8 4 8 4 8 4 9 3 
8 4 8 3 8 3 9 3 8 3 8 3 8 2 9 3 
8 2 8 2 9 2 8 2 8 1 8 2 9 1 8 1 
8 1 8 1 9 1 8 1 8 0 8 0 9 0 8 0 
8 0 9 -1 8 0 8 -1 8 -1 9 -1 8 -1 8 -2 
8 -1 9 -2 8 -2 8 -2 9 -2 8 -3 8 -2 8 -3 
9 -3 8 -3 8 -3 8 -3 9 -4 8 -3 8 -4 8 -4 
9 -4 8 -4 8 -5 9 -4 8 -5 8 -4 8 -5 9 -5 
8 -5 8 -6 8 -5 9 -5 8 -6 8 -6 8 -5 9 -6 
8 -6 8 -6 9 -7 8 -6 8 -6 8 -7 9 -6 8 -7 
8 -7 8 -7 9 -7 2350 2704 300 MP stroke
8 -7 8 -7 9 -7 8 -7 8 -7 8 -7 9 -8 8 -7 
8 -7 8 -8 9 -7 8 -8 8 -7 8 -8 9 -7 8 -8 
8 -8 9 -7 8 -8 8 -7 8 -8 9 -8 8 -7 8 -8 
8 -7 9 -8 8 -8 8 -7 8 -8 9 -7 8 -8 8 -7 
9 -7 8 -8 8 -7 8 -7 9 -7 8 -7 8 -7 8 -7 
9 -7 8 -7 8 -7 9 -7 8 -6 8 -7 8 -6 9 -7 
8 -6 8 -6 8 -6 9 -6 8 -6 8 -6 8 -6 9 -5 
8 -6 8 -5 9 -6 8 -5 8 -5 8 -5 9 -5 8 -5 
8 -4 8 -5 9 -4 8 -5 8 -4 8 -4 9 -4 8 -4 
8 -3 9 -4 8 -3 8 -4 8 -3 9 -3 8 -3 8 -3 
8 -2 9 -3 8 -2 8 -2 9 -3 8 -2 8 -2 8 -1 
9 -2 8 -1 8 -2 8 -1 9 -1 8 -1 8 -1 8 0 
9 -1 8 0 8 -1 9 0 8 0 8 0 8 1 9 0 
8 0 8 1 8 1 9 1 8 1 8 1 8 1 9 1 
8 2 8 1 9 2 8 2 8 2 8 2 9 2 8 2 
8 3 8 2 9 3 8 3 8 2 9 3 8 3 8 3 
8 3 9 4 8 3 8 3 8 4 9 3 8 4 8 4 
8 3 9 4 8 4 8 4 9 4 8 3 8 4 8 4 
9 4 8 4 8 4 8 4 9 4 8 4 8 4 8 4 
9 4 8 4 8 4 9 4 8 4 8 3 8 4 9 3 
8 4 8 3 8 4 9 3 8 3 8 3 9 3 8 3 
8 3 8 2 9 3 8 2 8 2 8 2 9 2 8 2 
8 2 8 1 9 1 8 2 8 1 9 0 8 1 8 0 
8 1 9 0 8 0 8 0 8 -1 9 0 8 -1 8 -1 
8 -1 9 -1 8 -2 8 -1 9 -2 8 -2 8 -2 8 -2 
4 -1 693 3029 202 MP stroke
gr

c9
0 sg
1850 3594 mt 
(Interspike Interval Peak Time \(ms\)) s
 410 2164 mt  -90 rotate
(Spike Density) s
90 rotate
%%IncludeResource: font Helvetica
/Helvetica /ISOLatin1Encoding 192 FMSR

1878  178 mt 
(IID Peaks NM vs. NL) s
%%IncludeResource: font Helvetica
/Helvetica /ISOLatin1Encoding 120 FMSR

 676 3349 mt 
( ) s
4807  331 mt 
( ) s
1 sg
0 390 863 0 0 -390 3601 941 4 MP
PP
-863 0 0 390 863 0 0 -390 3601 941 5 MP stroke
4 w
DO
SO
6 w
0 sg
3601  941 mt 4464  941 L
3601  551 mt 4464  551 L
3601  941 mt 3601  551 L
4464  941 mt 4464  551 L
3601  941 mt 4464  941 L
3601  941 mt 3601  551 L
3601  941 mt 4464  941 L
3601  551 mt 4464  551 L
3601  941 mt 3601  551 L
4464  941 mt 4464  551 L
4163  701 mt 
(NM) s
gs 3601 551 864 391 rc
c8
432 0 3687 659 2 MP stroke
gr

c8
0 sg
4163  876 mt 
(NL) s
gs 3601 551 864 391 rc
c9
432 0 3687 832 2 MP stroke
gr

c9

end %%Color Dict

eplot
%%EndObject

epage
end

showpage

%%Trailer
%%EOF
