%!PS-Adobe-3.0 EPSF-3.0
%%Creator: MATLAB, The MathWorks, Inc. Version 8.3.0.532 (R2014a). Operating System: Darwin 13.3.0 Darwin Kernel Version 13.3.0: Tue Jun  3 21:27:35 PDT 2014; root:xnu-2422.110.17~1/RELEASE_X86_64 x86_64.
%%Title: /Users/nphirning/Dropbox/BEDS2/Nick/v5 IID Peaks-NM vs. NL.eps
%%CreationDate: 08/04/2014  12:16:34
%%DocumentNeededFonts: Helvetica
%%DocumentProcessColors: Cyan Magenta Yellow Black
%%LanguageLevel: 2
%%Pages: 1
%%BoundingBox:    83   241   527   551
%%EndComments

%%BeginProlog
% MathWorks dictionary
/MathWorks 160 dict begin
% definition operators
/bdef {bind def} bind def
/ldef {load def} bind def
/xdef {exch def} bdef
/xstore {exch store} bdef
% operator abbreviations
/c  /clip ldef
/cc /concat ldef
/cp /closepath ldef
/gr /grestore ldef
/gs /gsave ldef
/mt /moveto ldef
/np /newpath ldef
/cm /currentmatrix ldef
/sm /setmatrix ldef
/rm /rmoveto ldef
/rl /rlineto ldef
/s {show newpath} bdef
/sc {setcmykcolor} bdef
/sr /setrgbcolor ldef
/sg /setgray ldef
/w /setlinewidth ldef
/j /setlinejoin ldef
/cap /setlinecap ldef
/rc {rectclip} bdef
/rf {rectfill} bdef
% page state control
/pgsv () def
/bpage {/pgsv save def} bdef
/epage {pgsv restore} bdef
/bplot /gsave ldef
/eplot {stroke grestore} bdef
% orientation switch
/portraitMode 0 def /landscapeMode 1 def /rotateMode 2 def
% coordinate system mappings
/dpi2point 0 def
% font control
/FontSize 0 def
/FMS {/FontSize xstore findfont [FontSize 0 0 FontSize neg 0 0]
  makefont setfont} bdef
/reencode {exch dup where {pop load} {pop StandardEncoding} ifelse
  exch dup 3 1 roll findfont dup length dict begin
  { 1 index /FID ne {def}{pop pop} ifelse } forall
  /Encoding exch def currentdict end definefont pop} bdef
/isroman {findfont /CharStrings get /Agrave known} bdef
/FMSR {3 1 roll 1 index dup isroman {reencode} {pop pop} ifelse
  exch FMS} bdef
/csm {1 dpi2point div -1 dpi2point div scale neg translate
 dup landscapeMode eq {pop -90 rotate}
  {rotateMode eq {90 rotate} if} ifelse} bdef
% line types: solid, dotted, dashed, dotdash
/SO { [] 0 setdash } bdef
/DO { [.5 dpi2point mul 4 dpi2point mul] 0 setdash } bdef
/DA { [6 dpi2point mul] 0 setdash } bdef
/DD { [.5 dpi2point mul 4 dpi2point mul 6 dpi2point mul 4
  dpi2point mul] 0 setdash } bdef
% macros for lines and objects
/L {lineto stroke} bdef
/MP {3 1 roll moveto 1 sub {rlineto} repeat} bdef
/AP {{rlineto} repeat} bdef
/PDlw -1 def
/W {/PDlw currentlinewidth def setlinewidth} def
/PP {closepath eofill} bdef
/DP {closepath stroke} bdef
/MR {4 -2 roll moveto dup  0 exch rlineto exch 0 rlineto
  neg 0 exch rlineto closepath} bdef
/FR {MR stroke} bdef
/PR {MR fill} bdef
/L1i {{currentfile picstr readhexstring pop} image} bdef
/tMatrix matrix def
/MakeOval {newpath tMatrix currentmatrix pop translate scale
0 0 1 0 360 arc tMatrix setmatrix} bdef
/FO {MakeOval stroke} bdef
/PO {MakeOval fill} bdef
/PD {currentlinewidth 2 div 0 360 arc fill
   PDlw -1 eq not {PDlw w /PDlw -1 def} if} def
/FA {newpath tMatrix currentmatrix pop translate scale
  0 0 1 5 -2 roll arc tMatrix setmatrix stroke} bdef
/PA {newpath tMatrix currentmatrix pop	translate 0 0 moveto scale
  0 0 1 5 -2 roll arc closepath tMatrix setmatrix fill} bdef
/FAn {newpath tMatrix currentmatrix pop translate scale
  0 0 1 5 -2 roll arcn tMatrix setmatrix stroke} bdef
/PAn {newpath tMatrix currentmatrix pop translate 0 0 moveto scale
  0 0 1 5 -2 roll arcn closepath tMatrix setmatrix fill} bdef
/vradius 0 def /hradius 0 def /lry 0 def
/lrx 0 def /uly 0 def /ulx 0 def /rad 0 def
/MRR {/vradius xdef /hradius xdef /lry xdef /lrx xdef /uly xdef
  /ulx xdef newpath tMatrix currentmatrix pop ulx hradius add uly
  vradius add translate hradius vradius scale 0 0 1 180 270 arc 
  tMatrix setmatrix lrx hradius sub uly vradius add translate
  hradius vradius scale 0 0 1 270 360 arc tMatrix setmatrix
  lrx hradius sub lry vradius sub translate hradius vradius scale
  0 0 1 0 90 arc tMatrix setmatrix ulx hradius add lry vradius sub
  translate hradius vradius scale 0 0 1 90 180 arc tMatrix setmatrix
  closepath} bdef
/FRR {MRR stroke } bdef
/PRR {MRR fill } bdef
/MlrRR {/lry xdef /lrx xdef /uly xdef /ulx xdef /rad lry uly sub 2 div def
  newpath tMatrix currentmatrix pop ulx rad add uly rad add translate
  rad rad scale 0 0 1 90 270 arc tMatrix setmatrix lrx rad sub lry rad
  sub translate rad rad scale 0 0 1 270 90 arc tMatrix setmatrix
  closepath} bdef
/FlrRR {MlrRR stroke } bdef
/PlrRR {MlrRR fill } bdef
/MtbRR {/lry xdef /lrx xdef /uly xdef /ulx xdef /rad lrx ulx sub 2 div def
  newpath tMatrix currentmatrix pop ulx rad add uly rad add translate
  rad rad scale 0 0 1 180 360 arc tMatrix setmatrix lrx rad sub lry rad
  sub translate rad rad scale 0 0 1 0 180 arc tMatrix setmatrix
  closepath} bdef
/FtbRR {MtbRR stroke } bdef
/PtbRR {MtbRR fill } bdef
/stri 6 array def /dtri 6 array def
/smat 6 array def /dmat 6 array def
/tmat1 6 array def /tmat2 6 array def /dif 3 array def
/asub {/ind2 exch def /ind1 exch def dup dup
  ind1 get exch ind2 get sub exch } bdef
/tri_to_matrix {
  2 0 asub 3 1 asub 4 0 asub 5 1 asub
  dup 0 get exch 1 get 7 -1 roll astore } bdef
/compute_transform {
  dmat dtri tri_to_matrix tmat1 invertmatrix 
  smat stri tri_to_matrix tmat2 concatmatrix } bdef
/ds {stri astore pop} bdef
/dt {dtri astore pop} bdef
/db {2 copy /cols xdef /rows xdef mul dup 3 mul string
  currentfile 
  3 index 0 eq {/ASCIIHexDecode filter}
  {/ASCII85Decode filter 3 index 2 eq {/RunLengthDecode filter} if }
  ifelse exch readstring pop
  dup 0 3 index getinterval /rbmap xdef
  dup 2 index dup getinterval /gbmap xdef
  1 index dup 2 mul exch getinterval /bbmap xdef pop pop}bdef
/it {gs np dtri aload pop moveto lineto lineto cp c
  cols rows 8 compute_transform 
  rbmap gbmap bbmap true 3 colorimage gr}bdef
/il {newpath moveto lineto stroke}bdef
currentdict end def
%%EndProlog

%%BeginSetup
MathWorks begin

0 cap

end
%%EndSetup

%%Page: 1 1
%%BeginPageSetup
%%PageBoundingBox:    83   241   527   551
MathWorks begin
bpage
%%EndPageSetup

%%BeginObject: obj1
bplot

/dpi2point 12 def
portraitMode 0996 6612 csm

    0     0  5329  3715 rc
85 dict begin %Colortable dictionary
/c0 { 0.000000 0.000000 0.000000 sr} bdef
/c1 { 1.000000 1.000000 1.000000 sr} bdef
/c2 { 0.900000 0.000000 0.000000 sr} bdef
/c3 { 0.000000 0.820000 0.000000 sr} bdef
/c4 { 0.000000 0.000000 0.800000 sr} bdef
/c5 { 0.910000 0.820000 0.320000 sr} bdef
/c6 { 1.000000 0.260000 0.820000 sr} bdef
/c7 { 0.000000 0.820000 0.820000 sr} bdef
c0
1 j
1 sg
   0    0 5330 3716 rf
6 w
0 3017 4130 0 0 -3017 693 3306 4 MP
PP
-4130 0 0 3017 4130 0 0 -3017 693 3306 5 MP stroke
4 w
DO
SO
6 w
0 sg
 693 3306 mt 4823 3306 L
 693  289 mt 4823  289 L
 693 3306 mt  693  289 L
4823 3306 mt 4823  289 L
 693 3306 mt 4823 3306 L
 693 3306 mt  693  289 L
 693 3306 mt  693 3264 L
 693  289 mt  693  330 L
%%IncludeResource: font Helvetica
/Helvetica /ISOLatin1Encoding 120 FMSR

 660 3451 mt 
(0) s
 899 3306 mt  899 3285 L
 899  289 mt  899  309 L
1106 3306 mt 1106 3285 L
1106  289 mt 1106  309 L
1106 3306 mt 1106 3285 L
1106  289 mt 1106  309 L
1106 3306 mt 1106 3285 L
1106  289 mt 1106  309 L
1106 3306 mt 1106 3285 L
1106  289 mt 1106  309 L
1106 3306 mt 1106 3285 L
1106  289 mt 1106  309 L
1106 3306 mt 1106 3285 L
1106  289 mt 1106  309 L
1106 3306 mt 1106 3285 L
1106  289 mt 1106  309 L
1106 3306 mt 1106 3285 L
1106  289 mt 1106  309 L
1106 3306 mt 1106 3264 L
1106  289 mt 1106  330 L
1073 3451 mt 
(1) s
1312 3306 mt 1312 3285 L
1312  289 mt 1312  309 L
1519 3306 mt 1519 3285 L
1519  289 mt 1519  309 L
1519 3306 mt 1519 3285 L
1519  289 mt 1519  309 L
1519 3306 mt 1519 3285 L
1519  289 mt 1519  309 L
1519 3306 mt 1519 3285 L
1519  289 mt 1519  309 L
1519 3306 mt 1519 3285 L
1519  289 mt 1519  309 L
1519 3306 mt 1519 3285 L
1519  289 mt 1519  309 L
1519 3306 mt 1519 3285 L
1519  289 mt 1519  309 L
1519 3306 mt 1519 3285 L
1519  289 mt 1519  309 L
1519 3306 mt 1519 3264 L
1519  289 mt 1519  330 L
1486 3451 mt 
(2) s
1725 3306 mt 1725 3285 L
1725  289 mt 1725  309 L
1932 3306 mt 1932 3285 L
1932  289 mt 1932  309 L
1932 3306 mt 1932 3285 L
1932  289 mt 1932  309 L
1932 3306 mt 1932 3285 L
1932  289 mt 1932  309 L
1932 3306 mt 1932 3285 L
1932  289 mt 1932  309 L
1932 3306 mt 1932 3285 L
1932  289 mt 1932  309 L
1932 3306 mt 1932 3285 L
1932  289 mt 1932  309 L
1932 3306 mt 1932 3285 L
1932  289 mt 1932  309 L
1932 3306 mt 1932 3285 L
1932  289 mt 1932  309 L
1932 3306 mt 1932 3264 L
1932  289 mt 1932  330 L
1899 3451 mt 
(3) s
2138 3306 mt 2138 3285 L
2138  289 mt 2138  309 L
2345 3306 mt 2345 3285 L
2345  289 mt 2345  309 L
2345 3306 mt 2345 3285 L
2345  289 mt 2345  309 L
2345 3306 mt 2345 3285 L
2345  289 mt 2345  309 L
2345 3306 mt 2345 3285 L
2345  289 mt 2345  309 L
2345 3306 mt 2345 3285 L
2345  289 mt 2345  309 L
2345 3306 mt 2345 3285 L
2345  289 mt 2345  309 L
2345 3306 mt 2345 3285 L
2345  289 mt 2345  309 L
2345 3306 mt 2345 3285 L
2345  289 mt 2345  309 L
2345 3306 mt 2345 3264 L
2345  289 mt 2345  330 L
2312 3451 mt 
(4) s
2551 3306 mt 2551 3285 L
2551  289 mt 2551  309 L
2758 3306 mt 2758 3285 L
2758  289 mt 2758  309 L
2758 3306 mt 2758 3285 L
2758  289 mt 2758  309 L
2758 3306 mt 2758 3285 L
2758  289 mt 2758  309 L
2758 3306 mt 2758 3285 L
2758  289 mt 2758  309 L
2758 3306 mt 2758 3285 L
2758  289 mt 2758  309 L
2758 3306 mt 2758 3285 L
2758  289 mt 2758  309 L
2758 3306 mt 2758 3285 L
2758  289 mt 2758  309 L
2758 3306 mt 2758 3285 L
2758  289 mt 2758  309 L
2758 3306 mt 2758 3264 L
2758  289 mt 2758  330 L
2725 3451 mt 
(5) s
2964 3306 mt 2964 3285 L
2964  289 mt 2964  309 L
3171 3306 mt 3171 3285 L
3171  289 mt 3171  309 L
3171 3306 mt 3171 3285 L
3171  289 mt 3171  309 L
3171 3306 mt 3171 3285 L
3171  289 mt 3171  309 L
3171 3306 mt 3171 3285 L
3171  289 mt 3171  309 L
3171 3306 mt 3171 3285 L
3171  289 mt 3171  309 L
3171 3306 mt 3171 3285 L
3171  289 mt 3171  309 L
3171 3306 mt 3171 3285 L
3171  289 mt 3171  309 L
3171 3306 mt 3171 3285 L
3171  289 mt 3171  309 L
3171 3306 mt 3171 3264 L
3171  289 mt 3171  330 L
3138 3451 mt 
(6) s
3377 3306 mt 3377 3285 L
3377  289 mt 3377  309 L
3584 3306 mt 3584 3285 L
3584  289 mt 3584  309 L
3584 3306 mt 3584 3285 L
3584  289 mt 3584  309 L
3584 3306 mt 3584 3285 L
3584  289 mt 3584  309 L
3584 3306 mt 3584 3285 L
3584  289 mt 3584  309 L
3584 3306 mt 3584 3285 L
3584  289 mt 3584  309 L
3584 3306 mt 3584 3285 L
3584  289 mt 3584  309 L
3584 3306 mt 3584 3285 L
3584  289 mt 3584  309 L
3584 3306 mt 3584 3285 L
3584  289 mt 3584  309 L
3584 3306 mt 3584 3264 L
3584  289 mt 3584  330 L
3551 3451 mt 
(7) s
3790 3306 mt 3790 3285 L
3790  289 mt 3790  309 L
3997 3306 mt 3997 3285 L
3997  289 mt 3997  309 L
3997 3306 mt 3997 3285 L
3997  289 mt 3997  309 L
3997 3306 mt 3997 3285 L
3997  289 mt 3997  309 L
3997 3306 mt 3997 3285 L
3997  289 mt 3997  309 L
3997 3306 mt 3997 3285 L
3997  289 mt 3997  309 L
3997 3306 mt 3997 3285 L
3997  289 mt 3997  309 L
3997 3306 mt 3997 3285 L
3997  289 mt 3997  309 L
3997 3306 mt 3997 3285 L
3997  289 mt 3997  309 L
3997 3306 mt 3997 3264 L
3997  289 mt 3997  330 L
3964 3451 mt 
(8) s
4203 3306 mt 4203 3285 L
4203  289 mt 4203  309 L
4410 3306 mt 4410 3285 L
4410  289 mt 4410  309 L
4410 3306 mt 4410 3285 L
4410  289 mt 4410  309 L
4410 3306 mt 4410 3285 L
4410  289 mt 4410  309 L
4410 3306 mt 4410 3285 L
4410  289 mt 4410  309 L
4410 3306 mt 4410 3285 L
4410  289 mt 4410  309 L
4410 3306 mt 4410 3285 L
4410  289 mt 4410  309 L
4410 3306 mt 4410 3285 L
4410  289 mt 4410  309 L
4410 3306 mt 4410 3285 L
4410  289 mt 4410  309 L
4410 3306 mt 4410 3264 L
4410  289 mt 4410  330 L
4377 3451 mt 
(9) s
4616 3306 mt 4616 3285 L
4616  289 mt 4616  309 L
4823 3306 mt 4823 3285 L
4823  289 mt 4823  309 L
4823 3306 mt 4823 3285 L
4823  289 mt 4823  309 L
4823 3306 mt 4823 3285 L
4823  289 mt 4823  309 L
4823 3306 mt 4823 3285 L
4823  289 mt 4823  309 L
4823 3306 mt 4823 3285 L
4823  289 mt 4823  309 L
4823 3306 mt 4823 3285 L
4823  289 mt 4823  309 L
4823 3306 mt 4823 3285 L
4823  289 mt 4823  309 L
4823 3306 mt 4823 3285 L
4823  289 mt 4823  309 L
4823 3306 mt 4823 3264 L
4823  289 mt 4823  330 L
4757 3451 mt 
(10) s
 693 3306 mt  734 3306 L
4823 3306 mt 4781 3306 L
 592 3350 mt 
(0) s
 693 2875 mt  734 2875 L
4823 2875 mt 4781 2875 L
 425 2919 mt 
(0.05) s
 693 2444 mt  734 2444 L
4823 2444 mt 4781 2444 L
 492 2488 mt 
(0.1) s
 693 2013 mt  734 2013 L
4823 2013 mt 4781 2013 L
 425 2057 mt 
(0.15) s
 693 1582 mt  734 1582 L
4823 1582 mt 4781 1582 L
 492 1626 mt 
(0.2) s
 693 1151 mt  734 1151 L
4823 1151 mt 4781 1151 L
 425 1195 mt 
(0.25) s
 693  720 mt  734  720 L
4823  720 mt 4781  720 L
 492  764 mt 
(0.3) s
 693  289 mt  734  289 L
4823  289 mt 4781  289 L
 425  333 mt 
(0.35) s
 693 3306 mt 4823 3306 L
 693  289 mt 4823  289 L
 693 3306 mt  693  289 L
4823 3306 mt 4823  289 L
gs 693 289 4131 3018 rc
/c8 { 0.000000 0.000000 1.000000 sr} bdef
c8
5 0 4 0 4 0 4 0 4 0 4 0 4 0 5 0 
4 0 4 0 4 0 4 0 4 0 4 0 5 0 4 0 
4 0 4 0 4 1 4 0 4 0 4 0 5 0 4 0 
4 0 4 0 4 0 4 0 4 0 5 0 4 0 4 0 
4 0 4 0 4 0 4 0 4 0 5 0 4 0 4 0 
4 0 4 0 4 0 4 0 5 0 4 0 4 0 4 0 
4 0 4 0 4 0 4 0 5 0 4 0 4 0 4 0 
4 0 4 1 4 0 5 0 4 0 4 0 4 0 4 0 
4 0 4 0 4 0 5 0 4 0 4 0 4 0 4 0 
4 0 4 0 5 0 4 0 4 0 4 0 4 0 4 0 
4 0 4 0 5 1 4 0 4 0 4 0 4 0 4 0 
4 0 5 0 4 0 4 0 4 0 4 0 4 0 4 0 
5 0 4 0 4 0 4 0 4 1 4 0 4 0 4 0 
5 0 4 0 4 0 4 0 4 0 4 0 4 0 5 0 
4 0 4 0 4 0 4 0 4 1 4 0 4 0 5 0 
4 0 4 0 4 0 4 0 4 0 4 0 5 0 4 1 
4 0 4 0 4 0 4 0 4 0 4 0 5 0 4 0 
4 0 4 0 4 1 4 0 4 0 5 0 4 0 4 0 
4 0 4 0 4 0 4 1 4 0 5 0 4 0 4 0 
4 0 4 0 4 0 4 0 5 1 4 0 4 0 4 0 
4 0 4 0 4 0 4 0 5 1 4 0 4 0 4 0 
4 0 4 1 4 0 5 0 4 0 4 0 4 0 4 1 
4 0 4 0 5 0 4 0 4 1 4 0 4 0 4 0 
4 0 4 0 5 1 4 0 4 0 4 0 4 0 4 1 
4 0 5 0 4 0 4 0 4 1 4 0 4 0 4 0 
4 0 5 1 4 0 4 0 4 0 4 1 4 0 4 0 
5 0 4 1 4 0 4 0 4 0 4 1 4 0 4 0 
5 0 4 1 4 0 4 0 4 1 4 0 4 0 5 0 
4 1 4 0 4 0 4 1 4 0 4 0 4 1 5 0 
4 0 4 0 4 1 4 0 4 0 4 1 5 0 4 0 
4 1 4 0 4 1 4 0 4 0 4 1 5 0 4 0 
4 1 4 0 4 1 4 0 4 0 5 1 4 0 4 1 
4 0 4 0 4 1 4 0 5 1 4 0 4 1 4 0 
4 0 4 1 4 0 4 1 5 0 4 1 4 0 4 1 
4 0 4 1 4 0 5 1 4 0 4 1 4 0 4 1 
4 0 4 1 4 0 5 1 4 0 4 1 4 1 4 0 
4 1 4 0 5 1 4 0 4 1 4 1 4 0 4 1 
4 1 4 0 5 1 3586 3249 300 MP stroke
4 0 4 1 4 1 4 0 4 1 4 1 5 0 4 1 
4 1 4 1 4 0 4 1 4 1 4 0 5 1 4 1 
4 1 4 0 4 1 4 1 4 1 5 0 4 1 4 1 
4 1 4 1 4 0 4 1 4 1 5 1 4 1 4 1 
4 1 4 0 4 1 4 1 5 1 4 1 4 1 4 1 
4 1 4 1 4 1 5 1 4 1 4 1 4 1 4 1 
4 1 4 1 4 1 5 1 4 1 4 1 4 1 4 1 
4 1 4 1 5 1 4 1 4 1 4 2 4 1 4 1 
4 1 4 1 5 1 4 2 4 1 4 1 4 1 4 1 
4 2 5 1 4 1 4 1 4 2 4 1 4 1 4 2 
4 1 5 1 4 2 4 1 4 1 4 2 4 1 4 2 
5 1 4 2 4 1 4 1 4 2 4 1 4 2 4 1 
5 2 4 1 4 2 4 2 4 1 4 2 4 1 5 2 
4 1 4 2 4 2 4 1 4 2 4 2 4 1 5 2 
4 2 4 2 4 1 4 2 4 2 4 2 5 2 4 1 
4 2 4 2 4 2 4 2 4 2 5 2 4 2 4 1 
4 2 4 2 4 2 4 2 4 2 5 2 4 2 4 2 
4 3 4 2 4 2 4 2 5 2 4 2 4 2 4 2 
4 3 4 2 4 2 4 2 5 3 4 2 4 2 4 2 
4 3 4 2 4 2 5 3 4 2 4 3 4 2 4 2 
4 3 4 2 4 3 5 2 4 3 4 2 4 3 4 3 
4 2 4 3 5 2 4 3 4 3 4 2 4 3 4 3 
4 2 4 3 5 3 4 3 4 3 4 2 4 3 4 3 
4 3 5 3 4 3 4 3 4 3 4 3 4 3 4 3 
4 3 5 3 4 3 4 3 4 3 4 3 4 3 4 3 
5 3 4 4 4 3 4 3 4 3 4 3 4 4 5 3 
4 3 4 4 4 3 4 3 4 4 4 3 4 4 5 3 
4 3 4 4 4 3 4 4 4 4 4 3 5 4 4 3 
4 4 4 4 4 3 4 4 4 4 4 3 5 4 4 4 
4 3 4 4 4 4 4 4 4 4 5 4 4 3 4 4 
4 4 4 4 4 4 4 4 4 4 5 4 4 4 4 4 
4 4 4 4 4 4 4 5 5 4 4 4 4 4 4 4 
4 4 4 5 4 4 4 4 5 4 4 5 4 4 4 4 
4 5 4 4 4 4 5 5 4 4 4 5 4 4 4 5 
4 4 4 5 4 4 5 5 4 4 4 5 4 4 4 5 
4 5 4 4 5 5 4 5 4 4 4 5 4 5 4 4 
4 5 5 5 4 5 4 5 4 4 4 5 4 5 4 5 
4 5 5 5 4 5 2350 2511 300 MP stroke
4 4 4 5 4 5 4 5 4 5 5 5 4 5 4 5 
4 5 4 5 4 5 4 5 4 5 5 5 4 5 4 6 
4 5 4 5 4 5 4 5 5 5 4 5 4 6 4 5 
4 5 4 5 4 5 4 5 5 6 4 5 4 5 4 5 
4 6 4 5 4 5 5 5 4 6 4 5 4 5 4 6 
4 5 4 5 4 6 5 5 4 5 4 6 4 5 4 5 
4 6 4 5 5 5 4 6 4 5 4 5 4 6 4 5 
4 6 4 5 5 5 4 6 4 5 4 5 4 6 4 5 
4 6 5 5 4 5 4 6 4 5 4 6 4 5 4 5 
5 6 4 5 4 5 4 6 4 5 4 5 4 6 4 5 
5 5 4 6 4 5 4 5 4 6 4 5 4 5 5 6 
4 5 4 5 4 5 4 6 4 5 4 5 4 5 5 6 
4 5 4 5 4 5 4 5 4 6 4 5 5 5 4 5 
4 5 4 5 4 5 4 5 4 6 4 5 5 5 4 5 
4 5 4 5 4 5 4 5 4 4 5 5 4 5 4 5 
4 5 4 5 4 5 4 5 4 4 5 5 4 5 4 5 
4 4 4 5 4 5 4 4 5 5 4 5 4 4 4 5 
4 4 4 5 4 4 4 5 5 4 4 4 4 5 4 4 
4 4 4 5 4 4 5 4 4 4 4 5 4 4 4 4 
4 4 4 4 5 4 4 4 4 4 4 4 4 4 4 4 
4 4 4 4 5 3 4 4 4 4 4 3 4 4 4 4 
4 3 5 4 4 3 4 4 4 3 4 4 4 3 4 3 
4 4 5 3 4 3 4 3 4 4 4 3 4 3 4 3 
5 3 4 3 4 3 4 2 4 3 4 3 4 3 4 3 
5 2 4 3 4 2 4 3 4 3 4 2 4 2 5 3 
4 2 4 2 4 3 4 2 4 2 4 2 4 2 5 2 
4 2 4 2 4 2 4 2 4 2 4 1 5 2 4 2 
4 1 4 2 4 2 4 1 4 1 4 2 5 1 4 2 
4 1 4 1 4 1 4 1 4 1 5 1 4 1 4 1 
4 1 4 1 4 1 4 0 5 1 4 1 4 0 4 1 
4 0 4 1 4 0 4 0 5 1 4 0 4 0 4 0 
4 0 4 0 4 0 5 0 4 0 4 0 4 0 4 -1 
4 0 4 0 4 -1 5 0 4 -1 4 0 4 -1 4 -1 
4 0 4 -1 5 -1 4 -1 4 -1 4 -1 4 -1 4 -1 
4 -1 4 -1 5 -1 4 -1 4 -2 4 -1 4 -1 4 -2 
4 -1 5 -2 4 -2 4 -1 4 -2 4 -2 4 -1 4 -2 
4 -2 5 -2 4 -2 4 -2 4 -2 4 -2 4 -2 4 -3 
5 -2 4 -2 4 -3 1114 1582 300 MP stroke
4 -2 4 -2 4 -3 4 -2 4 -3 5 -3 4 -2 4 -3 
4 -3 4 -3 4 -2 4 -3 5 -3 4 -3 4 -3 4 -3 
4 -3 4 -4 4 -3 5 -3 4 -3 4 -4 4 -3 4 -3 
4 -4 4 -3 4 -4 5 -3 4 -4 4 -4 4 -3 4 -4 
4 -4 4 -4 5 -3 4 -4 4 -4 4 -4 4 -4 4 -4 
4 -4 4 -4 5 -4 4 -4 4 -5 4 -4 4 -4 4 -4 
4 -5 5 -4 4 -5 4 -4 4 -4 4 -5 4 -4 4 -5 
4 -5 5 -4 4 -5 4 -5 4 -4 4 -5 4 -5 4 -5 
5 -4 4 -5 4 -5 4 -5 4 -5 4 -5 4 -5 4 -5 
5 -5 4 -5 4 -5 4 -5 4 -5 4 -5 4 -6 5 -5 
4 -5 4 -5 4 -6 4 -5 4 -5 4 -5 4 -6 5 -5 
4 -6 4 -5 4 -5 4 -6 4 -5 4 -6 5 -5 4 -6 
4 -5 4 -6 4 -5 4 -6 4 -6 4 -5 693 2017 103 MP stroke
/c9 { 0.000000 0.500000 0.000000 sr} bdef
c9
5 0 4 1 4 0 4 0 4 1 4 0 4 0 5 1 
4 0 4 1 4 0 4 0 4 1 4 0 5 1 4 0 
4 1 4 0 4 1 4 0 4 1 4 1 5 0 4 1 
4 0 4 1 4 0 4 1 4 1 5 0 4 1 4 1 
4 0 4 1 4 1 4 0 4 1 5 1 4 1 4 0 
4 1 4 1 4 1 4 1 5 1 4 0 4 1 4 1 
4 1 4 1 4 1 4 1 5 1 4 1 4 1 4 1 
4 1 4 1 4 1 5 1 4 1 4 1 4 2 4 1 
4 1 4 1 4 1 5 1 4 2 4 1 4 1 4 1 
4 2 4 1 5 1 4 2 4 1 4 1 4 2 4 1 
4 2 4 1 5 2 4 1 4 2 4 1 4 2 4 1 
4 2 5 1 4 2 4 2 4 1 4 2 4 2 4 1 
5 2 4 2 4 2 4 1 4 2 4 2 4 2 4 2 
5 1 4 2 4 2 4 2 4 2 4 2 4 2 5 2 
4 2 4 2 4 2 4 2 4 2 4 2 4 2 5 2 
4 3 4 2 4 2 4 2 4 2 4 3 5 2 4 2 
4 2 4 3 4 2 4 2 4 3 4 2 5 2 4 3 
4 2 4 3 4 2 4 2 4 3 5 2 4 3 4 2 
4 3 4 3 4 2 4 3 4 2 5 3 4 3 4 2 
4 3 4 3 4 2 4 3 5 3 4 3 4 2 4 3 
4 3 4 3 4 3 4 3 5 3 4 3 4 2 4 3 
4 3 4 3 4 3 5 3 4 3 4 3 4 4 4 3 
4 3 4 3 5 3 4 3 4 3 4 4 4 3 4 3 
4 3 4 4 5 3 4 3 4 4 4 3 4 3 4 4 
4 3 5 4 4 3 4 4 4 3 4 4 4 3 4 4 
4 4 5 3 4 4 4 4 4 3 4 4 4 4 4 3 
5 4 4 4 4 4 4 4 4 4 4 4 4 4 4 4 
5 4 4 4 4 4 4 4 4 4 4 4 4 4 5 4 
4 5 4 4 4 4 4 4 4 5 4 4 4 4 5 5 
4 4 4 4 4 5 4 4 4 5 4 4 5 5 4 4 
4 5 4 5 4 4 4 5 4 5 4 5 5 4 4 5 
4 5 4 5 4 5 4 5 4 5 5 5 4 5 4 5 
4 5 4 5 4 5 4 5 5 5 4 5 4 6 4 5 
4 6 4 5 4 5 4 6 5 5 4 6 4 5 4 6 
4 5 4 6 4 5 5 6 4 6 4 5 4 6 4 6 
4 5 4 6 4 6 5 6 4 6 4 6 4 6 4 6 
4 6 4 6 5 6 4 6 4 6 4 6 4 6 4 7 
4 6 4 6 5 6 3586 2446 300 MP stroke
4 7 4 6 4 7 4 6 4 6 4 7 5 6 4 7 
4 6 4 7 4 7 4 6 4 7 4 7 5 6 4 7 
4 7 4 7 4 6 4 7 4 7 5 7 4 7 4 7 
4 7 4 7 4 7 4 7 4 7 5 7 4 7 4 7 
4 7 4 7 4 7 4 7 5 7 4 8 4 7 4 7 
4 7 4 8 4 7 5 7 4 7 4 8 4 7 4 7 
4 8 4 7 4 8 5 7 4 7 4 8 4 7 4 8 
4 7 4 8 5 7 4 8 4 7 4 8 4 7 4 8 
4 7 4 8 5 7 4 8 4 7 4 8 4 7 4 8 
4 7 5 8 4 8 4 7 4 8 4 7 4 8 4 7 
4 8 5 7 4 8 4 7 4 8 4 8 4 7 4 8 
5 7 4 8 4 7 4 8 4 7 4 8 4 7 4 8 
5 7 4 8 4 7 4 8 4 7 4 7 4 8 5 7 
4 8 4 7 4 7 4 8 4 7 4 7 4 8 5 7 
4 7 4 8 4 7 4 7 4 7 4 7 5 8 4 7 
4 7 4 7 4 7 4 7 4 7 5 7 4 7 4 7 
4 7 4 7 4 7 4 7 4 7 5 7 4 7 4 7 
4 6 4 7 4 7 4 7 5 6 4 7 4 6 4 7 
4 6 4 7 4 6 4 7 5 6 4 7 4 6 4 6 
4 6 4 7 4 6 5 6 4 6 4 6 4 6 4 6 
4 6 4 6 4 6 5 5 4 6 4 6 4 5 4 6 
4 5 4 6 5 5 4 6 4 5 4 5 4 5 4 5 
4 6 4 5 5 4 4 5 4 5 4 5 4 4 4 5 
4 5 5 4 4 4 4 5 4 4 4 4 4 4 4 4 
4 4 5 4 4 3 4 4 4 4 4 3 4 4 4 3 
5 3 4 3 4 3 4 3 4 3 4 3 4 2 5 3 
4 2 4 3 4 2 4 2 4 2 4 2 4 2 5 1 
4 2 4 1 4 2 4 1 4 1 4 1 5 1 4 1 
4 0 4 1 4 0 4 1 4 0 4 0 5 0 4 -1 
4 0 4 -1 4 0 4 -1 4 -1 5 -1 4 -1 4 -1 
4 -2 4 -1 4 -2 4 -2 4 -2 5 -2 4 -2 4 -2 
4 -3 4 -3 4 -2 4 -3 5 -4 4 -3 4 -3 4 -4 
4 -3 4 -4 4 -4 4 -4 5 -4 4 -5 4 -4 4 -5 
4 -5 4 -5 4 -5 5 -5 4 -5 4 -6 4 -5 4 -6 
4 -6 4 -6 4 -6 5 -7 4 -6 4 -7 4 -7 4 -6 
4 -7 4 -8 5 -7 4 -7 4 -8 4 -8 4 -7 4 -8 
4 -8 5 -9 4 -8 4 -8 4 -9 4 -9 4 -8 4 -9 
4 -9 5 -9 4 -10 2350 1401 300 MP stroke
4 -9 4 -10 4 -9 4 -10 4 -10 5 -10 4 -10 4 -10 
4 -10 4 -10 4 -11 4 -10 4 -11 5 -11 4 -10 4 -11 
4 -11 4 -11 4 -11 4 -12 5 -11 4 -11 4 -12 4 -11 
4 -12 4 -11 4 -12 4 -12 5 -12 4 -11 4 -12 4 -12 
4 -12 4 -12 4 -13 5 -12 4 -12 4 -12 4 -13 4 -12 
4 -12 4 -13 4 -12 5 -13 4 -12 4 -13 4 -12 4 -13 
4 -12 4 -13 5 -12 4 -13 4 -13 4 -12 4 -13 4 -12 
4 -13 4 -13 5 -12 4 -13 4 -12 4 -13 4 -12 4 -13 
4 -12 5 -13 4 -12 4 -13 4 -12 4 -13 4 -12 4 -12 
5 -13 4 -12 4 -12 4 -12 4 -12 4 -12 4 -13 4 -12 
5 -11 4 -12 4 -12 4 -12 4 -12 4 -11 4 -12 5 -12 
4 -11 4 -12 4 -11 4 -11 4 -11 4 -12 4 -11 5 -11 
4 -11 4 -11 4 -10 4 -11 4 -11 4 -10 5 -11 4 -10 
4 -11 4 -10 4 -10 4 -10 4 -10 4 -10 5 -10 4 -9 
4 -10 4 -10 4 -9 4 -10 4 -9 5 -9 4 -9 4 -9 
4 -9 4 -9 4 -8 4 -9 4 -9 5 -8 4 -8 4 -9 
4 -8 4 -8 4 -8 4 -8 5 -7 4 -8 4 -8 4 -7 
4 -7 4 -8 4 -7 4 -7 5 -7 4 -7 4 -7 4 -6 
4 -7 4 -6 4 -7 5 -6 4 -6 4 -6 4 -6 4 -6 
4 -6 4 -5 5 -6 4 -6 4 -5 4 -5 4 -5 4 -6 
4 -5 4 -4 5 -5 4 -5 4 -5 4 -4 4 -5 4 -4 
4 -4 5 -5 4 -4 4 -4 4 -4 4 -3 4 -4 4 -4 
4 -3 5 -4 4 -3 4 -3 4 -4 4 -3 4 -3 4 -3 
5 -3 4 -2 4 -3 4 -3 4 -2 4 -3 4 -2 4 -2 
5 -3 4 -2 4 -2 4 -2 4 -2 4 -1 4 -2 5 -2 
4 -1 4 -2 4 -1 4 -2 4 -1 4 -1 4 -1 5 -1 
4 -1 4 -1 4 -1 4 -1 4 -1 4 0 5 -1 4 0 
4 -1 4 0 4 -1 4 0 4 0 4 0 5 0 4 0 
4 0 4 0 4 0 4 1 4 0 5 0 4 1 4 0 
4 1 4 1 4 0 4 1 5 1 4 1 4 0 4 1 
4 1 4 2 4 1 4 1 5 1 4 2 4 1 4 1 
4 2 4 1 4 2 5 1 4 2 4 2 4 2 4 1 
4 2 4 2 4 2 5 2 4 2 4 2 4 2 4 2 
4 3 4 2 5 2 4 2 4 3 4 2 4 3 4 2 
4 2 4 3 5 2 4 3 4 3 4 2 4 3 4 3 
4 2 5 3 4 3 4 2 4 3 4 3 4 3 4 3 
4 2 5 3 4 3 4 3 4 3 4 3 4 3 4 3 
5 3 4 3 4 3 1114 3056 300 MP stroke
4 3 4 3 4 3 4 3 4 3 5 3 4 3 4 3 
4 3 4 3 4 3 4 3 5 2 4 3 4 3 4 3 
4 3 4 3 4 3 5 3 4 2 4 3 4 3 4 3 
4 2 4 3 4 3 5 2 4 3 4 2 4 3 4 2 
4 3 4 2 5 3 4 2 4 2 4 3 4 2 4 2 
4 2 4 2 5 2 4 2 4 2 4 2 4 2 4 2 
4 1 5 2 4 2 4 1 4 2 4 1 4 2 4 1 
4 1 5 2 4 1 4 1 4 1 4 1 4 1 4 1 
5 1 4 0 4 1 4 1 4 0 4 1 4 0 4 0 
5 1 4 0 4 0 4 0 4 0 4 0 4 0 5 0 
4 0 4 -1 4 0 4 0 4 -1 4 0 4 -1 5 -1 
4 -1 4 0 4 -1 4 -1 4 -1 4 -1 5 -1 4 -2 
4 -1 4 -1 4 -1 4 -2 4 -1 4 -2 693 2925 103 MP stroke
gr

c9
0 sg
1850 3594 mt 
(Interspike Interval Peak Time \(ms\)) s
 343 2164 mt  -90 rotate
(Spike Density) s
90 rotate
%%IncludeResource: font Helvetica
/Helvetica /ISOLatin1Encoding 192 FMSR

1856  178 mt 
(IID Peaks: NM vs. NL) s
%%IncludeResource: font Helvetica
/Helvetica /ISOLatin1Encoding 120 FMSR

 676 3349 mt 
( ) s
4807  331 mt 
( ) s
1 sg
0 390 863 0 0 -390 3661 917 4 MP
PP
-863 0 0 390 863 0 0 -390 3661 917 5 MP stroke
4 w
DO
SO
6 w
0 sg
3661  917 mt 4524  917 L
3661  527 mt 4524  527 L
3661  917 mt 3661  527 L
4524  917 mt 4524  527 L
3661  917 mt 4524  917 L
3661  917 mt 3661  527 L
3661  917 mt 4524  917 L
3661  527 mt 4524  527 L
3661  917 mt 3661  527 L
4524  917 mt 4524  527 L
4223  677 mt 
(NM) s
gs 3661 527 864 391 rc
c8
432 0 3747 635 2 MP stroke
gr

c8
0 sg
4223  852 mt 
(NL) s
gs 3661 527 864 391 rc
c9
432 0 3747 808 2 MP stroke
gr

c9

end %%Color Dict

eplot
%%EndObject

epage
end

showpage

%%Trailer
%%EOF
