\relax 
\@writefile{toc}{\contentsline {section}{\numberline {1}GLMs}{1}}
\@writefile{toc}{\contentsline {subsection}{\numberline {1.1}The Setup}{1}}
\@writefile{toc}{\contentsline {subsection}{\numberline {1.2}MLE}{2}}
\@writefile{toc}{\contentsline {subsection}{\numberline {1.3}LSE}{3}}
