This is BibTeX, Version 0.99d (TeX Live 2017/Debian)
Capacity: max_strings=100000, hash_size=100000, hash_prime=85009
The top-level auxiliary file: paper.aux
The style file: abbrv.bst
Database file #1: neuronNum.bib
Warning--entry type for "tutorial" isn't style-file defined
--line 121 of file neuronNum.bib
You've used 7 entries,
            2118 wiz_defined-function locations,
            545 strings with 5032 characters,
and the built_in function-call counts, 2606 in all, are:
= -- 234
> -- 177
< -- 0
+ -- 73
- -- 64
* -- 211
:= -- 465
add.period$ -- 20
call.type$ -- 7
change.case$ -- 53
chr.to.int$ -- 0
cite$ -- 7
duplicate$ -- 73
empty$ -- 169
format.name$ -- 64
if$ -- 507
int.to.chr$ -- 0
int.to.str$ -- 7
missing$ -- 7
newline$ -- 37
num.names$ -- 14
pop$ -- 52
preamble$ -- 1
purify$ -- 46
quote$ -- 0
skip$ -- 49
stack$ -- 0
substring$ -- 132
swap$ -- 7
text.length$ -- 0
text.prefix$ -- 0
top$ -- 0
type$ -- 26
warning$ -- 0
while$ -- 20
width$ -- 8
write$ -- 76
(There was 1 warning)
