\relax 
\citation{10.3389/neuro.09.031.2009}
\citation{Drachman2004}
\@writefile{toc}{\contentsline {section}{\numberline {1}The Biology}{1}}
\@writefile{toc}{\contentsline {subsection}{\numberline {1.1}The Brain}{1}}
\@writefile{toc}{\contentsline {subsection}{\numberline {1.2}Neurons}{1}}
\citation{tutorial}
\@writefile{toc}{\contentsline {section}{\numberline {2}Classical Analysis}{2}}
\@writefile{toc}{\contentsline {subsection}{\numberline {2.1}Parameteric Models}{2}}
\@writefile{toc}{\contentsline {subsection}{\numberline {2.2}Non-Parametric Models}{2}}
\@writefile{toc}{\contentsline {subsection}{\numberline {2.3}Linear-Nonlinear (LN) Models}{2}}
\citation{GLMBook}
\@writefile{lof}{\contentsline {figure}{\numberline {1}{\ignorespaces STA Filter Example\cite  {tutorial}}}{3}}
\@writefile{toc}{\contentsline {subsection}{\numberline {2.4}Generalized Linear Models}{3}}
\@writefile{toc}{\contentsline {subsection}{\numberline {2.5}Least Squares Estimation}{4}}
\citation{ALJADEFF2016221}
\citation{ALJADEFF2016221}
\@writefile{toc}{\contentsline {subsection}{\numberline {2.6}Spike Train History}{5}}
\@writefile{lof}{\contentsline {figure}{\numberline {2}{\ignorespaces Diagram of Procedure\cite  {ALJADEFF2016221}}}{5}}
\@writefile{toc}{\contentsline {section}{\numberline {3}Machine Learning}{5}}
\@writefile{toc}{\contentsline {subsection}{\numberline {3.1}Unsupervised Machine Learning}{5}}
\@writefile{lof}{\contentsline {figure}{\numberline {3}{\ignorespaces Before K-Means}}{6}}
\@writefile{lof}{\contentsline {figure}{\numberline {4}{\ignorespaces K-Means with $K = 3,5$}}{6}}
\@writefile{toc}{\contentsline {subsection}{\numberline {3.2}Supervised Machine Learning}{6}}
\citation{SciKit}
\@writefile{toc}{\contentsline {subsubsection}{\numberline {3.2.1}Decision Tree Example}{7}}
\@writefile{lof}{\contentsline {figure}{\numberline {5}{\ignorespaces Sci-Kit Learn's Decision Tree Example}}{7}}
\@writefile{toc}{\contentsline {subsubsection}{\numberline {3.2.2}Hyperparameters}{7}}
\@writefile{lof}{\contentsline {figure}{\numberline {6}{\ignorespaces Sci-Kit Learn's Function for a Decision Tree\cite  {SciKit}}}{7}}
\citation{Benjamin111450}
\citation{Benjamin111450}
\citation{Benjamin111450}
\citation{Benjamin111450}
\@writefile{toc}{\contentsline {subsubsection}{\numberline {3.2.3}Optimizing Hyperparameters}{8}}
\@writefile{toc}{\contentsline {section}{\numberline {4}Comparison}{8}}
\@writefile{lof}{\contentsline {figure}{\numberline {7}{\ignorespaces Fairly Typical pR2 Plot\cite  {Benjamin111450}}}{8}}
\@writefile{lof}{\contentsline {figure}{\numberline {8}{\ignorespaces GLM Outperforms NN\cite  {Benjamin111450}}}{8}}
\@writefile{lof}{\contentsline {figure}{\numberline {9}{\ignorespaces Sparse Dataset\cite  {Benjamin111450}}}{8}}
\@writefile{toc}{\contentsline {section}{\numberline {5}Conclusion}{9}}
\@writefile{toc}{\contentsline {section}{\numberline {6}Extras}{9}}
\@writefile{toc}{\contentsline {subsection}{\numberline {6.1}Challenges}{9}}
\citation{SciKit}
\citation{Benjamin111450}
\bibstyle{abbrv}
\bibdata{neuronNum}
\bibcite{ALJADEFF2016221}{1}
\bibcite{Benjamin111450}{2}
\bibcite{GLMBook}{3}
\bibcite{Drachman2004}{4}
\bibcite{10.3389/neuro.09.031.2009}{5}
\bibcite{tutorial}{6}
\bibcite{SciKit}{7}
